{
  "name": "react3in1-web",
  "version": "0.1.0",
  "private": true,
  "dependencies": {
    "material-ui": "^0.18.7",
    "react": "^15.6.1",
    "react-dom": "^15.6.1",
    "react-redux": "^5.0.5",
    "react-router-dom": "^4.1.1",
    "react-tap-event-plugin": "^2.0.1",
    "redux": "^3.7.1"
  },
  "devDependencies": {
    "react-scripts": "1.0.10"
  },
  "scripts": {
    "start": "react-scripts start",
    "build": "react-scripts build",
    "test": "react-scripts test --env=jsdom",
    "eject": "react-scripts eject"
  }
}
